waves.vcd
$date
     Mar 31, 2020       17:52:26
$end

$version
 SystemC 2.3.3-Accellera --- Mar 26 2020 17:46:15
$end

$timescale
     1 ns
$end

$scope module SystemC $end
$var wire    1  aaaaa  clk       $end
$var wire    1  aaaab  DataReq_FFTtoOUT       $end
$var wire    1  aaaac  DataValid_FFTtoOUT       $end
$var wire    1  aaaad  DataReq_INtoFFT       $end
$var wire    1  aaaae  DataValid_INtoFFT       $end
$var wire   23  aaaaf  Real_FFTtoOUT [22:0]  $end
$var wire   23  aaaag  Imag_FFTtoOUT [22:0]  $end
$var wire   23  aaaah  Real_INtoFFT [22:0]  $end
$var wire   23  aaaai  Imag_INtoFFT [22:0]  $end
$upscope $end
$enddefinitions  $end

$comment
All initial values are dumped below at time 0 sec = 0 timescale units.
$end

$dumpvars
0aaaaa
0aaaab
0aaaac
1aaaad
0aaaae
b0 aaaaf
b0 aaaag
b0 aaaah
b0 aaaai
$end

#10
1aaaaa
1aaaab

#15
0aaaaa

#20
1aaaaa

#25
0aaaaa

#30
1aaaaa

#35
0aaaaa

#40
1aaaaa

#45
0aaaaa

#50
1aaaaa

#55
0aaaaa

#60
1aaaaa

#65
0aaaaa

#70
1aaaaa

#75
0aaaaa

#80
1aaaaa
1aaaae
b1111101101100000 aaaah
b1111101101100000 aaaai

#85
0aaaaa

#90
1aaaaa

#95
0aaaaa

#100
1aaaaa

#105
0aaaaa

#110
1aaaaa

#115
0aaaaa

#120
1aaaaa

#125
0aaaaa

#130
1aaaaa

#135
0aaaaa

#140
1aaaaa

#145
0aaaaa

#150
1aaaaa

#155
0aaaaa

#160
1aaaaa
1aaaac
0aaaad
0aaaae
b1111101101100000000 aaaaf
b1111101101100000000 aaaag

#165
0aaaaa

#170
1aaaaa
b0 aaaaf
b0 aaaag

#175
0aaaaa

#180
1aaaaa

#185
0aaaaa

#190
1aaaaa

#195
0aaaaa

#200
1aaaaa

#205
0aaaaa

#210
1aaaaa

#215
0aaaaa

#220
1aaaaa

#225
0aaaaa

#230
1aaaaa

#235
0aaaaa

#240
1aaaaa
0aaaab
0aaaac
1aaaad
1aaaae
b100000 aaaah
b100000 aaaai

#245
0aaaaa

#250
1aaaaa
b0 aaaah
b0 aaaai

#255
0aaaaa

#260
1aaaaa

#265
0aaaaa

#270
1aaaaa

#275
0aaaaa

#280
1aaaaa

#285
0aaaaa

#290
1aaaaa

#295
0aaaaa

#300
1aaaaa

#305
0aaaaa

#310
1aaaaa

#315
0aaaaa

#320
1aaaaa
1aaaab
1aaaac
0aaaad
0aaaae
b100000 aaaaf
b100000 aaaag

#325
0aaaaa

#330
1aaaaa

#335
0aaaaa

#340
1aaaaa

#345
0aaaaa

#350
1aaaaa

#355
0aaaaa

#360
1aaaaa

#365
0aaaaa

#370
1aaaaa

#375
0aaaaa

#380
1aaaaa

#385
0aaaaa

#390
1aaaaa

#395
0aaaaa

#400
1aaaaa
0aaaab
0aaaac
1aaaad
1aaaae
b11100100000000 aaaai

#405
0aaaaa

#410
1aaaaa
b111100000000 aaaah
b1110101000000 aaaai

#415
0aaaaa

#420
1aaaaa
b1110101000000 aaaah
b111100000000 aaaai

#425
0aaaaa

#430
1aaaaa
b111100000000 aaaah
b0 aaaai

#435
0aaaaa

#440
1aaaaa
b0 aaaah
b11111111111000100000000 aaaai

#445
0aaaaa

#450
1aaaaa
b11111111111000100000000 aaaah
b11111111110001011000000 aaaai

#455
0aaaaa

#460
1aaaaa
b11111111110001011000000 aaaah
b11111111100011100000000 aaaai

#465
0aaaaa

#470
1aaaaa
b11111111111000100000000 aaaah
b11111111010000000000000 aaaai

#475
0aaaaa

#480
1aaaaa
1aaaab
1aaaac
0aaaad
0aaaae
b0 aaaaf
b11111111010000000000000 aaaag

#485
0aaaaa

#490
1aaaaa
b1011001100011100 aaaaf
b11111111100011010001000 aaaag

#495
0aaaaa

#500
1aaaaa
b110000000000000 aaaaf
b101010000000000 aaaag

#505
0aaaaa

#510
1aaaaa
b10011100001100 aaaaf
b111001001010100 aaaag

#515
0aaaaa

#520
1aaaaa
b0 aaaaf
b110000000000000 aaaag

#525
0aaaaa

#530
1aaaaa
b11111111101110011100100 aaaaf
b101010001111000 aaaag

#535
0aaaaa

#540
1aaaaa
b11111111010000000000000 aaaaf
b101010000000000 aaaag

#545
0aaaaa

#550
1aaaaa
b11111110100100011110100 aaaaf
b1001001010101100 aaaag

#555
0aaaaa

#560
1aaaaa
0aaaab
0aaaac
1aaaad
1aaaae
b111101100000 aaaah
b1110100000 aaaai

#565
0aaaaa

#570
1aaaaa
b10001000000 aaaah
b10001000000 aaaai

#575
0aaaaa

#580
1aaaaa
b11111111111110100100000 aaaah
b101010100000 aaaai

#585
0aaaaa

#590
1aaaaa
b110000000 aaaah
b1100111000000 aaaai

#595
0aaaaa

#600
1aaaaa
b10110100000 aaaah
b10101000000000 aaaai

#605
0aaaaa

#610
1aaaaa
b0 aaaah
b100101000100000 aaaai

#615
0aaaaa

#620
1aaaaa
b100001100000 aaaah
b110011011100000 aaaai

#625
0aaaaa

#630
1aaaaa
b1000011000000 aaaah
b11010011000000 aaaai

#635
0aaaaa

#640
1aaaaa
1aaaab
1aaaac
0aaaad
0aaaae
b11000100000000 aaaaf
b10011110000000000 aaaag

#645
0aaaaa

#650
1aaaaa
b11111110111011010011001 aaaaf
b11111111100111110101100 aaaag

#655
0aaaaa

#660
1aaaaa
b111101100000 aaaaf
b11111111100101000100000 aaaag

#665
0aaaaa

#670
1aaaaa
b1001001011011 aaaaf
b11111111111010100011001 aaaag

#675
0aaaaa

#680
1aaaaa
b10000000000 aaaaf
b1001000000 aaaag

#685
0aaaaa

#690
1aaaaa
b11111111110010001100111 aaaaf
b11111111111101000010100 aaaag

#695
0aaaaa

#700
1aaaaa
b111110100000 aaaaf
b11111111010111000100000 aaaag

#705
0aaaaa

#710
1aaaaa
b1011100110100101 aaaaf
b11111111010011110100111 aaaag

#715
0aaaaa

#720
1aaaaa
0aaaab
0aaaac
1aaaad

#725
0aaaaa

#730
1aaaaa

#735
0aaaaa

#740
1aaaaa

#745
0aaaaa

#750
1aaaaa

#755
0aaaaa

#760
1aaaaa

#765
0aaaaa

#770
1aaaaa

#775
0aaaaa

#780
1aaaaa

#785
0aaaaa

#790
1aaaaa

#795
0aaaaa

#800
1aaaaa
1aaaab

